NHL Expected Goals Model
…
## # A tibble: 6 x 5
## # Groups:   event_player_1 [6]
##    event_player_1 event_team          xG Goals  Difference
##             <chr>      <chr>       <dbl> <dbl>       <dbl>
## 1    AARON.EKBLAD        FLA 11.02887921    10  1.02887921
## 2      AARON.NESS        WSH  0.02557414     0  0.02557414
## 3 ADAM.CLENDENING        NYR  1.35385413     2 -0.64614587
## 4  ADAM.CRACKNELL        DAL  8.22744066    10 -1.77255934
## 5       ADAM.ERNE        T.B  3.54879312     3  0.54879312
## 6   ADAM.HENRIQUE        N.J 18.51550598    20 -1.48449402

arrange(xg_player, desc(xG))

## # A tibble: 941 x 5
## # Groups:   event_player_1 [880]
##      event_player_1 event_team       xG Goals Difference
##               <chr>      <chr>    <dbl> <dbl>      <dbl>
##  1     JEFF.SKINNER        CAR 34.58222    37  -2.417784
##  2  AUSTON.MATTHEWS        TOR 34.00383    40  -5.996170
##  3     JOHN.TAVARES        NYI 33.65972    28   5.659719
##  4   CONNOR.MCDAVID        EDM 33.59372    30   3.593719
##  5   WAYNE.SIMMONDS        PHI 33.41914    31   2.419142
##  6      COREY.PERRY        ANA 30.50376    19  11.503756
##  7      RYAN.KESLER        ANA 30.48985    22   8.489851
##  8     JOE.PAVELSKI        S.J 30.47975    28   2.479749
##  9 NATHAN.MACKINNON        COL 29.61119    16  13.611189
## 10 PATRICE.BERGERON        BOS 29.60397    21   8.603967
## # ... with 931 more rows
…
As seen with the graph and the regression line the xG model works very well in predicting individual goal totals based on the inputs from the data. But as the graph shows the greatest variance in our data of predicted versus actual is when the data approaches the extremes of the higher end. Now lets take a look at a team level

xg_team <- Test_Fenwick_Data %>%
    group_by(event_team) %>%
    summarise( xG = sum(xG), Goals = sum(is_goal), Difference = sum(xG) - sum(is_goal))

arrange(xg_team, desc(xG))

## # A tibble: 30 x 4
##    event_team       xG Goals Difference
##         <chr>    <dbl> <dbl>      <dbl>
##  1        TOR 261.5669   248  13.566932
##  2        PIT 260.5818   269  -8.418173
##  3        CAR 253.6819   212  41.681865
##  4        EDM 251.0783   241  10.078280
##  5        ANA 242.3017   218  24.301721
##  6        NYR 242.1009   253 -10.899078
##  7        DAL 238.9408   221  17.940751
##  8        CBJ 234.6076   247 -12.392359
##  9        BOS 233.8284   231   2.828355
## 10        NYI 231.9795   239  -7.020528
## # ... with 20 more rows
…
